{
	"devScripts" : [
	],
	"prodScripts" : [ 
		"node_modules/jquery/dist/jquery.min.js",
		"node_modules/owl.carousel/dist/owl.carousel.min.js",
		"node_modules/featherlight/release/featherlight.min.js",
		"node_modules/cookieconsent/build/cookieconsent.min.js"
	]
}
